<?xml version="1.0" encoding="iso-8859-1"?>
<!-- Generator: Adobe Illustrator 19.0.0, SVG Export Plug-In . SVG Version: 6.00 Build 0)  -->
<svg version="1.1" id="Capa_1" xmlns="http://www.w3.org/2000/svg" xmlns:xlink="http://www.w3.org/1999/xlink" x="0px"
     y="0px"
     viewBox="0 0 402.808 402.808" style="enable-background:new 0 0 402.808 402.808;" xml:space="preserve">
<path style="fill:#3A2C51;" d="M382.955,402.808H16.196c-8.882,0-15.673-6.792-15.673-15.673V20.375
	c0-8.882,6.792-15.673,15.673-15.673h136.882c8.882,0,15.673,6.792,15.673,15.673s-6.792,15.673-15.673,15.673H31.869v335.412
	h335.412V250.253c0-8.882,6.792-15.673,15.673-15.673c8.882,0,15.673,6.792,15.673,15.673v136.882
	C398.629,396.016,391.837,402.808,382.955,402.808z"/>
    <polygon style="fill:#00BBD3;"
             points="206.367,258.09 205.845,258.612 120.686,282.645 144.718,197.486 145.241,196.963 "/>
    <path style="fill:#4DCFE0;" d="M144.718,196.963L338.547,3.135c4.18-4.18,10.449-4.18,14.629,0l45.976,45.976
	c4.18,4.18,4.18,10.449,0,14.629L205.845,258.09L144.718,196.963z"/>
    <g>
</g>
    <g>
</g>
    <g>
</g>
    <g>
</g>
    <g>
</g>
    <g>
</g>
    <g>
</g>
    <g>
</g>
    <g>
</g>
    <g>
</g>
    <g>
</g>
    <g>
</g>
    <g>
</g>
    <g>
</g>
    <g>
</g>
</svg>
